<svg xmlns="http://www.w3.org/2000/svg" width="16" height="13.091" viewBox="0 0 16 13.091">
  <g id="download-business-statistics-symbol-of-a-graphic" transform="translate(-2.167)">
    <g id="Group_6" data-name="Group 6" transform="translate(2.167)">
      <path id="Path_6" data-name="Path 6" d="M2.167,0V13.091h16V0ZM17.128,12.052H3.206V1.039H17.128Z" transform="translate(-2.167)" fill="#701d46"/>
      <path id="Path_7" data-name="Path 7" d="M19.026,34.385,17.157,36.33v3.281a.167.167,0,0,0,.167.167h2.269a.167.167,0,0,0,.167-.167V34.577l-.523-.192Z" transform="translate(-14.476 -28.236)" fill="#701d46"/>
      <path id="Path_8" data-name="Path 8" d="M42.262,42.913H39.994a.167.167,0,0,0-.168.167v3.533a.168.168,0,0,0,.168.168h2.269a.167.167,0,0,0,.167-.168V43.08A.167.167,0,0,0,42.262,42.913Z" transform="translate(-33.091 -35.239)" fill="#701d46"/>
      <path id="Path_9" data-name="Path 9" d="M63.152,21.2l-.412-.344-1.491,1.627V28.5a.168.168,0,0,0,.168.167h2.269a.167.167,0,0,0,.167-.167V21.259c-.009.005-.018.012-.027.017a.61.61,0,0,1-.673-.072Z" transform="translate(-50.682 -17.129)" fill="#701d46"/>
      <path id="Path_10" data-name="Path 10" d="M12.521,14.955a.334.334,0,0,0,.241-.1L14.9,12.629,18.635,14A.335.335,0,0,0,19,13.916l3.441-3.754.805.673a.127.127,0,0,0,.207-.109l-.175-1.951a.126.126,0,0,0-.137-.115l-1.952.174a.127.127,0,0,0-.11.088.131.131,0,0,0-.005.049.126.126,0,0,0,.045.086l.807.674L18.656,13.3l-3.732-1.373a.336.336,0,0,0-.357.082l-2.288,2.38a.335.335,0,0,0,.241.567Z" transform="translate(-10.394 -7.111)" fill="#701d46"/>
    </g>
  </g>
</svg>
