<svg xmlns="http://www.w3.org/2000/svg" width="16" height="17.425" viewBox="0 0 16 17.425">
  <g id="settings" transform="translate(-19.45)">
    <g id="Group_9" data-name="Group 9" transform="translate(19.45)">
      <path id="Path_31" data-name="Path 31" d="M21.728,0a2.278,2.278,0,1,0,2.278,2.278A2.28,2.28,0,0,0,21.728,0Zm0,3.677a1.4,1.4,0,1,1,1.4-1.4A1.4,1.4,0,0,1,21.728,3.677Z" transform="translate(-19.45)" fill="#701d46"/>
      <path id="Path_32" data-name="Path 32" d="M109.035,257.214a.442.442,0,0,0,.07.619.425.425,0,0,0,.275.1.44.44,0,1,0-.344-.714Z" transform="translate(-105.662 -247.634)" fill="#701d46"/>
      <path id="Path_33" data-name="Path 33" d="M47.986,180.737a.44.44,0,0,0,.194.835.467.467,0,0,0,.194-.044.437.437,0,0,0,.2-.586A.441.441,0,0,0,47.986,180.737Z" transform="translate(-46.704 -174.075)" fill="#701d46"/>
      <path id="Path_34" data-name="Path 34" d="M21.179,214.8a.44.44,0,1,0-.2.857.455.455,0,0,0,.1.011.44.44,0,0,0,.1-.868Z" transform="translate(-20.597 -206.924)" fill="#701d46"/>
      <path id="Path_35" data-name="Path 35" d="M30.6,257.285a.44.44,0,0,0,.275.784.454.454,0,0,0,.275-.1.44.44,0,1,0-.549-.688Z" transform="translate(-30.037 -247.771)" fill="#701d46"/>
      <path id="Path_36" data-name="Path 36" d="M118.88,215.465a.455.455,0,0,0,.1-.011.44.44,0,0,0-.2-.857.442.442,0,0,0-.33.527A.448.448,0,0,0,118.88,215.465Z" transform="translate(-114.815 -206.727)" fill="#701d46"/>
      <path id="Path_37" data-name="Path 37" d="M91.872,180.637a.439.439,0,0,0-.381.791h0a.439.439,0,0,0,.19.044.439.439,0,0,0,.19-.835Z" transform="translate(-88.613 -173.979)" fill="#701d46"/>
      <path id="Path_38" data-name="Path 38" d="M70,276.1h-.007a.439.439,0,1,0,0,.879H70a.439.439,0,0,0,0-.879Z" transform="translate(-67.715 -265.989)" fill="#701d46"/>
      <path id="Path_39" data-name="Path 39" d="M21.728,351.4a2.278,2.278,0,1,0,2.278,2.278A2.28,2.28,0,0,0,21.728,351.4Zm0,3.677a1.4,1.4,0,1,1,1.4-1.4A1.4,1.4,0,0,1,21.728,355.077Z" transform="translate(-19.45 -338.531)" fill="#701d46"/>
      <path id="Path_40" data-name="Path 40" d="M193.789,47.879h8.753a.439.439,0,1,0,0-.879h-8.753a.439.439,0,0,0,0,.879Z" transform="translate(-186.982 -45.279)" fill="#701d46"/>
      <path id="Path_41" data-name="Path 41" d="M190.489,226.779a.438.438,0,1,0-.311-.128A.457.457,0,0,0,190.489,226.779Z" transform="translate(-183.802 -217.627)" fill="#701d46"/>
      <path id="Path_42" data-name="Path 42" d="M237.85,226.339a.439.439,0,1,0,.439-.439A.441.441,0,0,0,237.85,226.339Z" transform="translate(-229.852 -217.627)" fill="#701d46"/>
      <path id="Path_43" data-name="Path 43" d="M285.65,226.339a.439.439,0,1,0,.439-.439A.441.441,0,0,0,285.65,226.339Z" transform="translate(-275.901 -217.627)" fill="#701d46"/>
      <path id="Path_44" data-name="Path 44" d="M333.45,226.339a.439.439,0,1,0,.439-.439A.441.441,0,0,0,333.45,226.339Z" transform="translate(-321.951 -217.627)" fill="#701d46"/>
      <path id="Path_45" data-name="Path 45" d="M381.25,226.339a.439.439,0,1,0,.439-.439A.441.441,0,0,0,381.25,226.339Z" transform="translate(-368 -217.627)" fill="#701d46"/>
      <path id="Path_46" data-name="Path 46" d="M429.489,225.9a.438.438,0,1,0,.311.128A.444.444,0,0,0,429.489,225.9Z" transform="translate(-414.05 -217.627)" fill="#701d46"/>
      <path id="Path_47" data-name="Path 47" d="M199.242,401.6h-8.753a.439.439,0,1,0,0,.879h8.753a.439.439,0,1,0,0-.879Z" transform="translate(-183.802 -386.893)" fill="#701d46"/>
    </g>
  </g>
</svg>
